%YAML 1.1
%TAG !u! tag:unity3d.com,2011:
--- !u!114 &11400000
MonoBehaviour:
  m_ObjectHideFlags: 0
  m_CorrespondingSourceObject: {fileID: 0}
  m_PrefabInstance: {fileID: 0}
  m_PrefabAsset: {fileID: 0}
  m_GameObject: {fileID: 0}
  m_Enabled: 1
  m_EditorHideFlags: 0
  m_Script: {fileID: 11500000, guid: 4ff00ff470d3b5e4ab33471da8fe5793, type: 3}
  m_Name: Thank you kind sir
  m_EditorClassIdentifier: 
  unobtainable: 0
  cardName: Thank you kind sir
  frontThumbnail: {fileID: 21300000, guid: 969c80b028922d546ab0c4ca01326bfd, type: 3}
  energyCost: 2
  actionSound: {fileID: 8300000, guid: 6a2137240c2b98b4f80f05d90d5ab8a0, type: 3}
  description: Restores 3 Health to the Player.
  placingEffect: {fileID: 0}
  onSpellCast: {fileID: 11400000, guid: 8329a7035456aff498cab491dc422761, type: 2}
