%YAML 1.1
%TAG !u! tag:unity3d.com,2011:
--- !u!114 &11400000
MonoBehaviour:
  m_ObjectHideFlags: 0
  m_CorrespondingSourceObject: {fileID: 0}
  m_PrefabInstance: {fileID: 0}
  m_PrefabAsset: {fileID: 0}
  m_GameObject: {fileID: 0}
  m_Enabled: 1
  m_EditorHideFlags: 0
  m_Script: {fileID: 11500000, guid: b1b343aa79df02848b7973341209f86a, type: 3}
  m_Name: DamageRandomEnemyBy5
  m_EditorClassIdentifier: 
  amountOfProjectiles: 1
  distinctEntities: 0
  allEntities: 0
  entityType: 1
  cardEventToExecute: {fileID: 11400000, guid: bf9047af387f2de48ada43b4ae866abd, type: 2}
  projectilePrefab: {fileID: 1756895531053343616, guid: dbac1b4c7e5f06e43aa195f11956e014,
    type: 3}
