%YAML 1.1
%TAG !u! tag:unity3d.com,2011:
--- !u!114 &11400000
MonoBehaviour:
  m_ObjectHideFlags: 0
  m_CorrespondingSourceObject: {fileID: 0}
  m_PrefabInstance: {fileID: 0}
  m_PrefabAsset: {fileID: 0}
  m_GameObject: {fileID: 0}
  m_Enabled: 1
  m_EditorHideFlags: 0
  m_Script: {fileID: 11500000, guid: 8f8f232593015a74d8c5612055c9fc2b, type: 3}
  m_Name: Voice Over Pete
  m_EditorClassIdentifier: 
  cardName: Voice Over Pete
  frontThumbnail: {fileID: 21300000, guid: 1c3ede7fcc3939345a2fcbe269038225, type: 3}
  energyCost: 5
  actionSound: {fileID: 0}
  description: Attention all gamers!
  hyped: 0
  hasTaunt: 0
  attackDamage: 5
  initialHealth: 5
