%YAML 1.1
%TAG !u! tag:unity3d.com,2011:
--- !u!114 &11400000
MonoBehaviour:
  m_ObjectHideFlags: 0
  m_CorrespondingSourceObject: {fileID: 0}
  m_PrefabInstance: {fileID: 0}
  m_PrefabAsset: {fileID: 0}
  m_GameObject: {fileID: 0}
  m_Enabled: 1
  m_EditorHideFlags: 0
  m_Script: {fileID: 11500000, guid: 9e98e548dcdb50949b4e5ee46f7876e5, type: 3}
  m_Name: Brain Expansion 7
  m_EditorClassIdentifier: 
  unobtainable: 1
  cardName: Brain Expanding
  frontThumbnail: {fileID: 21300024, guid: 7c81a783f241a9b4987b3cb0d0b0e536, type: 3}
  energyCost: 5
  actionSound: {fileID: 0}
  description: Morphs every turn until it is fully self-aware.
  hyped: 0
  hasTaunt: 0
  attackDisabled: 0
  attackDamage: 5
  initialHealth: 12
  onPlaceEvent: {fileID: 0}
  onTurnBeginEvent: {fileID: 0}
  onTurnEndEvent: {fileID: 0}
  onDeathEvent: {fileID: 0}
  morphCondition: {fileID: 11400000, guid: a7a9f83ebc4f6cd4197141d6b2342131, type: 2}
