%YAML 1.1
%TAG !u! tag:unity3d.com,2011:
--- !u!114 &11400000
MonoBehaviour:
  m_ObjectHideFlags: 0
  m_CorrespondingSourceObject: {fileID: 0}
  m_PrefabInstance: {fileID: 0}
  m_PrefabAsset: {fileID: 0}
  m_GameObject: {fileID: 0}
  m_Enabled: 1
  m_EditorHideFlags: 0
  m_Script: {fileID: 11500000, guid: 8f8f232593015a74d8c5612055c9fc2b, type: 3}
  m_Name: Ugandan Sanic
  m_EditorClassIdentifier: 
  unobtainable: 1
  cardName: Ugandan Sanic
  frontThumbnail: {fileID: 21300000, guid: e9bc23b824e33da4c99238b209107ae0, type: 3}
  energyCost: 1
  actionSound: {fileID: 0}
  description: Gotta go fast ma brudahs
  hyped: 1
  hasTaunt: 0
  attackDisabled: 0
  attackDamage: 2
  initialHealth: 1
  onPlaceEvent: {fileID: 0}
  onTurnBeginEvent: {fileID: 0}
  onTurnEndEvent: {fileID: 0}
  onDeathEvent: {fileID: 0}
